6.242521656630219518e+00
4.905291415713713299e+00
8.370779655830119736e+00
5.648443012771412697e+00
2.776791195618656971e+01
1.414037394170788708e+01
2.387843390810838073e+01
5.996449810804628910e+00
6.927876657211090361e+00
1.785395179750192796e+01
2.765185018032568554e+00
1.083500700714141551e+01
5.564232101855972168e+00
4.343970427465237982e+00
