3.644155124243437172e+01
3.095700351384200300e+00
4.169970877503348383e+00
2.220981446420968286e+00
1.748519505470442104e+00
1.939293947238057703e+00
1.131449329282905403e+01
1.003533794726857131e+01
2.187249844302759172e+01
6.901230968532181009e+01
1.831508347261446401e+00
2.522192698188013793e+01
7.604109566089777950e+00
1.687264928056839475e+00
