1.362054180556364713e+02
7.302171801676399809e+01
1.622712223474569839e+02
2.393276601722582697e+01
2.892126931963841230e+01
1.285320734796908404e+01
1.652423554730107469e+02
8.310044946579063208e+01
9.485709742337246553e+01
7.885899265863615710e+02
2.894059367731737353e+01
7.986531039721130298e+01
1.046498456146375489e+01
8.303304804281411933e+00
