1.429347458565210900e+02
8.129040454569249619e+01
1.823831469800903164e+02
2.599284221184378652e+01
3.134956181462712976e+01
1.368372941994578262e+01
1.847190990982363701e+02
8.932083758778033200e+01
9.741422146028403972e+01
8.118493665823654055e+02
3.124779440389250951e+01
8.553107753557593185e+01
1.095099126135895418e+01
8.865673128173492401e+00
