9.677687339433079217e+01
7.578909171175122417e+00
9.667719109580355408e+00
1.313835948649416707e+01
1.144876226976949241e+01
7.624046313205876224e+00
3.161131348537002594e+01
5.105988949163179313e+01
7.709857825566594158e+01
5.946086605737264108e+02
4.797210663956128940e+00
5.591573263899432789e+01
7.121607405247367240e+00
4.334908787783364303e+00
