1.207836872295985557e+02
1.378443157610055714e+01
1.913912292714766394e+01
1.960865925437558488e+01
2.279108654270303802e+01
1.011487729851140394e+01
5.583796388543231615e+01
6.907797277424735682e+01
8.889302370417213695e+01
7.087489857556540755e+02
8.757700378594487134e+00
6.918657641002025116e+01
8.821376711449632424e+00
6.514402398072815181e+00
