1.443562203992666753e+02
8.232069697412586606e+01
1.819186117920320669e+02
2.646154543616185961e+01
3.189762289463877920e+01
1.386357520520085451e+01
1.888499293452053962e+02
9.070375209155314167e+01
9.793239440883529312e+01
8.165563720085357318e+02
3.164433848558463680e+01
8.678380945878689090e+01
1.105266657005046937e+01
8.988169397057449217e+00
