1.252763861772892007e+01
8.225958980392299225e+00
2.325135453175509070e+00
1.147761953860943596e+00
6.671725762588073927e+00
2.936793829785908638e+00
4.877940151711108285e+00
6.962972780487254987e+00
1.333642561891299572e+01
1.541161779528122899e+01
2.717904968074039029e+00
1.042235052613560242e+01
9.930021870676615237e+00
5.874430512932647730e+00
