2.194383317233337127e+00
2.505713568577930150e+00
1.578714292078798209e+00
1.905481221367841149e+00
1.463360771923787107e+00
1.551138120611494031e+00
1.215491100149062920e+00
3.982594274888143104e+00
2.519711800122331091e+00
2.826368196891310358e+00
1.615749414494246583e+00
2.022263349439562763e+00
2.534137998838851047e+00
1.278284185613285162e+00
