7.116929885086969421e+01
6.930485573272759048e+00
5.119100554856914620e+00
3.270185343285136881e+00
3.159403346086036901e+00
4.134192666591228082e+00
1.368832136079259421e+01
2.173480987920722995e+01
5.643702156240013323e+01
1.967107630798725779e+02
3.681786780360180700e+00
4.381669283260011127e+01
8.683081869013792087e+00
2.633880165739852508e+00
