4.444437560546190724e+01
3.717140633929372662e+00
4.474685266335976408e+00
2.468476384251118816e+00
1.906708921230539699e+00
2.251133642387689981e+00
1.163680397868191463e+01
1.175229502688138261e+01
2.919691249028269198e+01
8.552017479683682666e+01
2.402724405648458017e+00
2.833113854473854332e+01
1.016759645036878368e+01
1.804212399572887149e+00
