3.394864160746078330e+00
3.925977998757848475e+00
4.632570901964998988e+00
3.713157940344397279e+00
2.016694256956884956e+01
3.267979717558890496e+00
4.481582177527129396e+00
4.709091976386198475e+00
3.920111405696263152e+00
7.263337518012844107e+00
2.082181604952841880e+00
6.128818415543585196e+00
4.096575423821875006e+00
5.910806761025745537e+00
