9.863891897150658394e+01
7.641483699226633952e+00
1.021422428041566732e+01
1.502702353630950505e+01
1.658442958010479629e+01
7.650396340275111839e+00
3.180881375423150459e+01
5.312961996122228214e+01
7.575250238448141715e+01
5.874652368203251172e+02
4.971582429610539755e+00
5.555669223846408755e+01
7.036942783876032337e+00
4.516670541644674408e+00
