4.245347389982632791e+01
3.587719348615542536e+00
4.460747731676398153e+00
2.423292905584219170e+00
1.851762070389838755e+00
2.175333912107968448e+00
1.152437015929952757e+01
1.124780318416891589e+01
2.754823418495531584e+01
8.043823978438517486e+01
2.295906894698914069e+00
2.749247456462880734e+01
9.751439407074354193e+00
1.763855819099466871e+00
