1.585426626663361560e+02
9.317231773204791523e+01
1.795663034521928694e+02
3.201004733900686006e+01
3.829576982876285740e+01
1.578432458555923645e+01
2.434217175116195904e+02
1.061730232957637980e+02
1.026113799266696276e+02
8.602056033888692355e+02
3.582344963436083418e+01
1.005460484189671320e+02
1.205939458721881863e+01
1.031036586712996694e+01
